<?xml version="1.0" encoding="UTF-8"?>
<svg width="185px" height="40px" viewBox="0 0 150 28" version="1.1" xmlns="http://www.w3.org/2000/svg" xmlns:xlink="http://www.w3.org/1999/xlink">
    <!-- Generator: Sketch 47.1 (45422) - http://www.bohemiancoding.com/sketch -->
    <title>logo</title>
    <desc>Created with Sketch.</desc>
    <defs></defs>
    <g id="demo" stroke="none" stroke-width="1" fill="none" fill-rule="evenodd">
        <g id="5_2_Authorization_spinner" transform="translate(-24.000000, -17.000000)">
            <g id="logo" transform="translate(24.000000, 17.954434)">
                <path d="M27.0341741,15.4882018 L27.0341741,11.3567941 C27.0341741,11.2652563 26.9609439,11.1981286 26.8755085,11.1981286 L22.7441009,11.1981286 C22.6525631,11.1981286 22.5854353,11.2713588 22.5854353,11.3567941 L22.5854353,15.4882018 C22.5854353,15.5797396 22.6586656,15.6468674 22.7441009,15.6468674 L26.8755085,15.6468674 C26.9609439,15.6529699 27.0341741,15.5797396 27.0341741,15.4882018 Z" id="Shape" fill="#444444" fill-rule="nonzero"></path>
                <path d="M27.0341741,4.32058584 L27.0341741,0.189178194 C27.0341741,0.097640358 26.9609439,0.0305126119 26.8755085,0.0305126119 L22.7441009,0.0305126119 C22.6525631,0.0305126119 22.5854353,0.10374288 22.5854353,0.189178194 L22.5854353,4.32058584 C22.5854353,4.41212368 22.6586656,4.47925142 22.7441009,4.47925142 L26.8755085,4.47925142 C26.9609439,4.47925142 27.0341741,4.41212368 27.0341741,4.32058584 Z" id="Shape" fill="#FAAE42" fill-rule="nonzero"></path>
                <path d="M27.0341741,21.1269325 L27.0341741,16.9955248 C27.0341741,16.903987 26.9609439,16.8368592 26.8755085,16.8368592 L22.7441009,16.8368592 C22.6525631,16.8368592 22.5854353,16.9100895 22.5854353,16.9955248 L22.5854353,21.1269325 C22.5854353,21.2184703 22.6586656,21.285598 22.7441009,21.285598 L26.8755085,21.285598 C26.9609439,21.285598 27.0341741,21.2123678 27.0341741,21.1269325 Z M4.49145647,15.4882018 L4.49145647,11.3567941 C4.49145647,11.2652563 4.4182262,11.1981286 4.33279089,11.1981286 L0.201383238,11.1981286 C0.109845403,11.1981286 0.0427176566,11.2713588 0.0427176566,11.3567941 L0.0427176566,15.4882018 C0.0427176566,15.5797396 0.115947925,15.6468674 0.201383238,15.6468674 L4.33279089,15.6468674 C4.4182262,15.6529699 4.49145647,15.5797396 4.49145647,15.4882018 Z M4.49145647,21.1269325 L4.49145647,16.9955248 C4.49145647,16.903987 4.4182262,16.8368592 4.33279089,16.8368592 L0.201383238,16.8368592 C0.109845403,16.8368592 0.0427176566,16.9100895 0.0427176566,16.9955248 L0.0427176566,21.1269325 C0.0427176566,21.2184703 0.115947925,21.285598 0.201383238,21.285598 L4.33279089,21.285598 C4.4182262,21.285598 4.49145647,21.2123678 4.49145647,21.1269325 Z" id="Shape" fill="#444444" fill-rule="nonzero"></path>
                <path d="M4.49145647,4.32058584 L4.49145647,0.189178194 C4.49145647,0.097640358 4.4182262,0.0305126119 4.33279089,0.0305126119 L0.201383238,0.0305126119 C0.109845403,0.0305126119 0.0427176566,0.10374288 0.0427176566,0.189178194 L0.0427176566,4.32058584 C0.0427176566,4.41212368 0.115947925,4.47925142 0.201383238,4.47925142 L4.33279089,4.47925142 C4.4182262,4.47925142 4.49145647,4.41212368 4.49145647,4.32058584 Z" id="Shape" fill="#444444" fill-rule="nonzero" opacity="0.6"></path>
                <path d="M4.49145647,9.95931652 L4.49145647,5.82790887 C4.49145647,5.73637103 4.4182262,5.66924329 4.33279089,5.66924329 L0.201383238,5.66924329 C0.109845403,5.66924329 0.0427176566,5.74247356 0.0427176566,5.82790887 L0.0427176566,9.95931652 C0.0427176566,10.0508544 0.115947925,10.1179821 0.201383238,10.1179821 L4.33279089,10.1179821 C4.4182262,10.1179821 4.49145647,10.0447518 4.49145647,9.95931652 Z M27.0341741,26.8266884 L27.0341741,22.6952807 C27.0341741,22.6037429 26.9609439,22.5366151 26.8755085,22.5366151 L22.7441009,22.5366151 C22.6525631,22.5366151 22.5854353,22.6098454 22.5854353,22.6952807 L22.5854353,26.8266884 C22.5854353,26.9182262 22.6586656,26.9853539 22.7441009,26.9853539 L26.8755085,26.9853539 C26.9609439,26.9853539 27.0341741,26.9121237 27.0341741,26.8266884 Z M21.401546,26.8266884 L21.401546,22.6952807 C21.401546,22.6037429 21.3283157,22.5366151 21.2428804,22.5366151 L17.1114727,22.5366151 C17.0199349,22.5366151 16.9528072,22.6098454 16.9528072,22.6952807 L16.9528072,26.8266884 C16.9528072,26.9182262 17.0260374,26.9853539 17.1114727,26.9853539 L21.2367779,26.9853539 C21.3283157,26.9853539 21.401546,26.9121237 21.401546,26.8266884 Z M15.7628153,26.8266884 L15.7628153,22.6952807 C15.7628153,22.6037429 15.689585,22.5366151 15.6041497,22.5366151 L11.4727421,22.5366151 C11.3812042,22.5366151 11.3140765,22.6098454 11.3140765,22.6952807 L11.3140765,26.8266884 C11.3140765,26.9182262 11.3873068,26.9853539 11.4727421,26.9853539 L15.6041497,26.9853539 C15.689585,26.9853539 15.7628153,26.9121237 15.7628153,26.8266884 Z M4.49145647,26.8266884 L4.49145647,22.6952807 C4.49145647,22.6037429 4.4182262,22.5366151 4.33279089,22.5366151 L0.201383238,22.5366151 C0.109845403,22.5366151 0.0427176566,22.6098454 0.0427176566,22.6952807 L0.0427176566,26.8266884 C0.0427176566,26.9182262 0.115947925,26.9853539 0.201383238,26.9853539 L4.33279089,26.9853539 C4.4182262,26.9853539 4.49145647,26.9121237 4.49145647,26.8266884 L4.49145647,26.8266884 Z M10.1240846,26.8266884 L10.1240846,22.6952807 C10.1240846,22.6037429 10.0508544,22.5366151 9.96541904,22.5366151 L5.83401139,22.5366151 C5.74247356,22.5366151 5.67534581,22.6098454 5.67534581,22.6952807 L5.67534581,26.8266884 C5.67534581,26.9182262 5.74857608,26.9853539 5.83401139,26.9853539 L9.96541904,26.9853539 C10.0569569,26.9853539 10.1240846,26.9121237 10.1240846,26.8266884 Z" id="Shape" fill="#444444" fill-rule="nonzero"></path>
                <path d="M15.7628153,4.32058584 L15.7628153,0.189178194 C15.7628153,0.097640358 15.689585,0.0305126119 15.6041497,0.0305126119 L11.4727421,0.0305126119 C11.3812042,0.0305126119 11.3140765,0.10374288 11.3140765,0.189178194 L11.3140765,4.32058584 C11.3140765,4.41212368 11.3873068,4.47925142 11.4727421,4.47925142 L15.6041497,4.47925142 C15.689585,4.47925142 15.7628153,4.41212368 15.7628153,4.32058584 Z" id="Shape" fill="#444444" fill-rule="nonzero" opacity="0.2"></path>
                <path d="M10.1240846,4.32058584 L10.1240846,0.189178194 C10.1240846,0.097640358 10.0508544,0.0305126119 9.96541904,0.0305126119 L5.83401139,0.0305126119 C5.74247356,0.0305126119 5.67534581,0.10374288 5.67534581,0.189178194 L5.67534581,4.32058584 C5.67534581,4.41212368 5.74857608,4.47925142 5.83401139,4.47925142 L9.96541904,4.47925142 C10.0569569,4.47925142 10.1240846,4.41212368 10.1240846,4.32058584 Z" id="Shape" fill="#444444" fill-rule="nonzero" opacity="0.4"></path>
                <path d="M126.682262,25.8319772 L126.682262,13.492677 C126.682262,13.4011391 126.609032,13.3340114 126.523596,13.3340114 L113.281123,13.3340114 C113.189585,13.3340114 113.122457,13.4072417 113.122457,13.492677 L113.122457,25.8319772 C113.122457,25.9235151 113.195688,25.9906428 113.281123,25.9906428 L126.523596,25.9906428 C126.609032,25.9906428 126.682262,25.9235151 126.682262,25.8319772 Z" id="Shape"></path>
                <path d="M41.1126932,17.3982913 L47.3189585,11.192026 L52.9576892,11.192026 L45.0610252,19.08869 L52.9576892,26.9853539 L47.3189585,26.9853539 L41.1126932,20.7790887 L36.6029292,20.7790887 L36.6029292,26.9853539 L32.0931652,26.9853539 L32.0931652,11.192026 L36.6029292,11.192026 L36.6029292,17.3982913 L41.1126932,17.3982913 L41.1126932,17.3982913 Z M54.6480879,11.2347437 L71.0028478,11.192026 C73.633035,11.192026 74.9511798,12.3209927 74.9511798,14.578926 L74.9511798,26.9853539 L58.5964199,26.9853539 C55.9662327,26.9853539 54.6480879,25.8563873 54.6480879,23.598454 L54.6480879,19.637917 C54.6480879,17.3921888 55.9662327,16.2632221 58.5964199,16.2632221 L70.4536208,16.2632221 L70.4414158,15.1342555 C70.4414158,14.7558991 70.2583401,14.5728234 69.8860862,14.5728234 L54.6480879,14.5728234 L54.6480879,11.2347437 Z M59.7131814,19.637917 C59.3470301,19.637917 59.1578519,19.8331977 59.1578519,20.2237592 L59.1578519,23.0309194 C59.1578519,23.4092758 59.3470301,23.5923515 59.719284,23.5923515 L70.4475183,23.5923515 L70.4353133,19.6440195 L59.7131814,19.637917 Z M77.2091131,11.2347437 L93.5638731,11.192026 C96.1940602,11.192026 97.512205,12.3209927 97.512205,14.578926 L97.512205,26.9853539 L81.1574451,26.9853539 C78.5272579,26.9853539 77.2091131,25.8563873 77.2091131,23.598454 L77.2091131,19.637917 C77.2091131,17.3921888 78.5272579,16.2632221 81.1574451,16.2632221 L93.0146461,16.2632221 L93.002441,15.1342555 C93.002441,14.7558991 92.8193653,14.5728234 92.4471115,14.5728234 L77.2091131,14.5728234 L77.2091131,11.2347437 L77.2091131,11.2347437 Z M82.2742067,19.637917 C81.9080553,19.637917 81.7188771,19.8331977 81.7188771,20.2237592 L81.7188771,23.0309194 C81.7188771,23.4092758 81.9080553,23.5923515 82.2803092,23.5923515 L93.0085435,23.5923515 L93.002441,19.6501221 L82.2742067,19.637917 L82.2742067,19.637917 Z" id="Shape" fill="#FAAE42" fill-rule="nonzero"></path>
                <path d="M107.087063,11.192026 L107.087063,26.9853539 L102.577299,26.9853539 L102.577299,11.192026 L107.087063,11.192026 Z M113.293328,26.9853539 C110.663141,26.9853539 109.344996,25.8563873 109.344996,23.598454 L109.344996,14.5728234 C109.344996,12.3148902 110.663141,11.1859235 113.293328,11.1859235 L125.711961,11.1859235 C128.342148,11.1859235 129.660293,12.3148902 129.666395,14.4995932 L129.65419,23.5252238 C129.648088,25.8502848 128.336046,26.9792514 125.711961,26.9792514 L113.293328,26.9792514 L113.293328,26.9853539 Z M114.41009,14.5850285 C114.043938,14.5850285 113.85476,14.7742067 113.85476,15.1464605 L113.85476,23.0309194 C113.85476,23.4092758 114.037836,23.5923515 114.41009,23.5923515 L124.582994,23.5801465 C124.961351,23.5801465 125.144426,23.3909683 125.144426,23.0187144 L125.144426,15.140358 C125.144426,14.7620016 124.955248,14.578926 124.582994,14.578926 L114.41009,14.5850285 Z M149.957282,11.179821 L149.957282,14.5728234 L143.20179,14.5728234 L143.20179,26.9792514 L138.679821,26.9792514 L138.667616,14.5728234 L131.912124,14.5850285 L131.912124,11.1554109 L149.957282,11.179821 L149.957282,11.179821 Z" id="Shape" fill="#444444" fill-rule="nonzero"></path>
            </g>
        </g>
    </g>
</svg>
