<?xml version="1.0" encoding="UTF-8"?>
<svg width="56px" height="56px" viewBox="0 0 56 56" version="1.1" xmlns="http://www.w3.org/2000/svg" xmlns:xlink="http://www.w3.org/1999/xlink">
    <!-- Generator: Sketch 47.1 (45422) - http://www.bohemiancoding.com/sketch -->
    <title>icons/spinner</title>
    <desc>Created with Sketch.</desc>
    <defs></defs>
    <animateTransform attributeType="xml"
                      attributeName="transform"
                      type="rotate"
                      from="0 27.5 27.5"
                      to="360 27.5 27.5"
                      dur="0.8s"
                      repeatCount="indefinite"/>
    <g id="demo" stroke="none" stroke-width="1" fill="none" fill-rule="evenodd">
        <g id="5_2_Authorization_spinner" transform="translate(-724.000000, -272.000000)" fill="#FAAE42">
            <g id="icons/spinner" transform="translate(724.000000, 272.000000)">
                <g id="Group-13">
                    <path d="M27.363,9.828 L27.363,0.006 C21.32,0.039 15.74,2.021 11.217,5.355 L16.998,13.314 C19.901,11.158 23.478,9.863 27.363,9.828" id="Fill-42" fill-opacity="0.1"></path>
                    <path d="M9.819,27.527 C9.819,25.674 10.106,23.888 10.634,22.209 L1.294,19.174 C0.455,21.808 0,24.613 0,27.527 C0,30.552 0.495,33.463 1.398,36.187 L10.746,33.15 C10.154,31.381 9.819,29.496 9.819,27.527" id="Fill-43" fill-opacity="0.3"></path>
                    <path d="M11.482,49.886 L17.259,41.935 C14.25,39.787 11.945,36.726 10.746,33.15 L1.398,36.187 C3.243,41.756 6.814,46.531 11.482,49.886" id="Fill-44" fill-opacity="0.4"></path>
                    <path d="M27.688,45.224 L27.688,55.049 C33.73,55.013 39.311,53.031 43.835,49.699 L38.054,41.74 C35.15,43.894 31.573,45.189 27.688,45.224" id="Fill-45" fill-opacity="0.6"></path>
                    <path d="M38.054,41.74 L43.835,49.699 C48.46,46.291 51.978,41.474 53.758,35.879 L44.417,32.844 C43.284,36.447 41.019,39.539 38.054,41.74" id="Fill-46" fill-opacity="0.7"></path>
                    <path d="M45.232,27.527 C45.232,29.379 44.945,31.164 44.417,32.844 L53.758,35.879 C54.597,33.244 55.052,30.437 55.052,27.527 C55.052,24.5 54.557,21.59 53.653,18.867 L44.306,21.904 C44.898,23.672 45.232,25.558 45.232,27.527" id="Fill-47" fill-opacity="0.8"></path>
                    <path d="M44.306,21.904 L53.653,18.867 C51.808,13.299 48.237,8.521 43.569,5.166 L37.793,13.119 C40.802,15.267 43.107,18.328 44.306,21.904" id="Fill-48" fill-opacity="0.9"></path>
                    <path d="M27.525,45.234 C23.693,45.234 20.156,44.004 17.259,41.935 L11.482,49.886 C15.999,53.135 21.536,55.052 27.525,55.052 L27.688,55.049 L27.688,45.224 L27.525,45.234" id="Fill-49" fill-opacity="0.5"></path>
                    <path d="M16.998,13.314 L11.217,5.355 C6.592,8.763 3.073,13.58 1.294,19.174 L10.634,22.209 C11.766,18.605 14.031,15.513 16.998,13.314" id="Fill-50" fill-opacity="0.2"></path>
                    <path d="M27.525,9.82 C31.358,9.82 34.895,11.049 37.793,13.119 L43.569,5.166 C39.052,1.92 33.514,0 27.525,0 L27.363,0.006 L27.363,9.828 L27.525,9.82" id="Fill-51"></path>
                </g>
            </g>
        </g>
    </g>
</svg>
